\relax 
\catcode `"\active 
\select@language{polish}
\@writefile{toc}{\select@language{polish}}
\@writefile{lof}{\select@language{polish}}
\@writefile{lot}{\select@language{polish}}
\select@language{polish}
\@writefile{toc}{\select@language{polish}}
\@writefile{lof}{\select@language{polish}}
\@writefile{lot}{\select@language{polish}}
\@writefile{toc}{\contentsline {section}{\numberline {1}Opis problemu}{1}}
\@writefile{toc}{\contentsline {section}{\numberline {2}Rozwi\IeC {\k a}zanie problemu}{1}}
\@writefile{toc}{\contentsline {subsection}{\numberline {2.1}Algorytm Bellmana-Forda}{2}}
\@writefile{toc}{\contentsline {subsection}{\numberline {2.2}Algorytm Dijkstry}{2}}
\@writefile{toc}{\contentsline {section}{\numberline {3}Wyniki test\IeC {\'o}w}{3}}
\@writefile{toc}{\contentsline {section}{\numberline {4}Wnioski}{3}}
