\relax 
\catcode `"\active 
\select@language{polish}
\@writefile{toc}{\select@language{polish}}
\@writefile{lof}{\select@language{polish}}
\@writefile{lot}{\select@language{polish}}
\select@language{polish}
\@writefile{toc}{\select@language{polish}}
\@writefile{lof}{\select@language{polish}}
\@writefile{lot}{\select@language{polish}}
\@writefile{toc}{\contentsline {section}{\numberline {1}Opis problemu}{1}}
\@writefile{toc}{\contentsline {section}{\numberline {2}Rozwi\IeC {\k a}zanie problemu}{1}}
\@writefile{toc}{\contentsline {section}{\numberline {3}Testy}{2}}
\@writefile{toc}{\contentsline {section}{\numberline {4}Wnioski}{3}}
